{
    "tours": [
        {
            "tour_id": "1",
            "start_time": 54095960,
            "deliveries": [
                "518",
                "867",
                "1535",
                "209",
                "572",
                "1916",
                "94",
                "443",
                "1596",
                "1262",
                "493",
                "1417",
                "1364",
                "145",
                "1967",
                "1424",
                "1316",
                "294",
                "1454",
                "238",
                "683",
                "1595",
                "1230",
                "1039",
                "270",
                "205",
                "1576",
                "1732",
                "542",
                "1024",
                "1213",
                "453",
                "1564",
                "1360",
                "782",
                "687",
                "1110",
                "1106",
                "1079",
                "411",
                "1319",
                "886",
                "1511",
                "403",
                "631",
                "883",
                "331",
                "1571",
                "1049",
                "1485",
                "982",
                "1693",
                "1807",
                "1728"
            ]
        },
        {
            "tour_id": "2",
            "start_time": 54000000,
            "deliveries": [
                "1771",
                "975",
                "671",
                "1709",
                "1013",
                "529",
                "1603",
                "425",
                "456",
                "1002",
                "533",
                "1300",
                "1119",
                "140",
                "1962",
                "744",
                "720",
                "1293",
                "240",
                "1506",
                "1960",
                "138",
                "669",
                "768",
                "1017",
                "866",
                "284",
                "1515",
                "1605",
                "1464",
                "21",
                "1338",
                "1843",
                "312",
                "1777",
                "1281",
                "1658",
                "1173",
                "1714",
                "1692",
                "1911",
                "142",
                "1780",
                "484",
                "1929",
                "558",
                "315",
                "805",
                "1166",
                "736",
                "377",
                "956",
                "686",
                "1090",
                "1162",
                "1810",
                "320",
                "702",
                "1699",
                "1237",
                "672",
                "1441",
                "677",
                "959",
                "1180",
                "1055",
                "1408",
                "497",
                "831",
                "89",
                "1474",
                "1200",
                "1648",
                "559",
                "114",
                "1936",
                "957",
                "834",
                "1374",
                "745",
                "1114",
                "1451",
                "1616",
                "455"
            ]
        },
        {
            "tour_id": "3",
            "start_time": 54167889,
            "deliveries": [
                "1964",
                "890",
                "930",
                "329",
                "1263",
                "475",
                "1928",
                "1724",
                "117",
                "1607",
                "80",
                "644",
                "983",
                "785",
                "120",
                "363",
                "1942",
                "1617",
                "750",
                "213",
                "1859",
                "37",
                "487",
                "1762",
                "10",
                "264",
                "153",
                "638",
                "879",
                "997",
                "508",
                "1508",
                "1949",
                "775",
                "567",
                "1000",
                "1232",
                "291",
                "486",
                "643",
                "1060",
                "505",
                "1194",
                "674",
                "1257",
                "865",
                "1160",
                "1880",
                "780",
                "354",
                "1902",
                "536",
                "171",
                "1993",
                "298",
                "374",
                "186",
                "58",
                "1168",
                "163",
                "1985",
                "970",
                "933",
                "244",
                "1064",
                "385",
                "1437",
                "784",
                "917"
            ]
        },
        {
            "tour_id": "4",
            "start_time": 54029572,
            "deliveries": [
                "617",
                "770",
                "1371",
                "170",
                "1756",
                "1626",
                "1614",
                "1236",
                "829",
                "851",
                "1968",
                "1208",
                "146",
                "73",
                "1828",
                "6",
                "1463",
                "1895",
                "1721",
                "804",
                "1444",
                "1602",
                "1937",
                "1500",
                "1439",
                "406",
                "1527",
                "761",
                "1831",
                "1665",
                "554",
                "410",
                "771",
                "1386",
                "1239",
                "844",
                "1655",
                "535",
                "1651",
                "1240",
                "1504",
                "1751",
                "150",
                "1846",
                "24",
                "1505",
                "310",
                "978",
                "603",
                "1369",
                "1099",
                "1819",
                "1577",
                "1634",
                "1832",
                "316",
                "1361",
                "345",
                "251",
                "351",
                "1739",
                "1305",
                "306",
                "1697",
                "9",
                "1768",
                "173",
                "1995",
                "378",
                "1972",
                "590",
                "1720",
                "1069",
                "1975",
                "1992",
                "1047",
                "127",
                "789",
                "870",
                "414",
                "1260",
                "388",
                "1164",
                "115",
                "801",
                "1597",
                "1431",
                "1346",
                "1702",
                "747",
                "790",
                "1706"
            ]
        },
        {
            "tour_id": "5",
            "start_time": 54253750,
            "deliveries": [
                "809",
                "825",
                "751",
                "794",
                "1021",
                "760",
                "397",
                "1184",
                "681",
                "1488",
                "1639",
                "502",
                "1791",
                "147",
                "728",
                "43",
                "1865",
                "998",
                "285",
                "969",
                "1944",
                "122",
                "189",
                "1705",
                "1105",
                "541",
                "489",
                "1265",
                "1604",
                "279",
                "1947",
                "125",
                "464",
                "1033",
                "832",
                "1753",
                "266",
                "730",
                "341",
                "197",
                "1675",
                "148",
                "1970",
                "863",
                "245",
                "79",
                "1901",
                "1969",
                "106",
                "1224",
                "1788",
                "897",
                "779",
                "375",
                "193",
                "1939",
                "1445",
                "963",
                "500",
                "1219",
                "1291",
                "1452",
                "602",
                "1135",
                "1430",
                "226",
                "1688",
                "884",
                "1022",
                "1253",
                "1496",
                "1822",
                "1518",
                "1130",
                "1513",
                "1138",
                "1308",
                "1205",
                "1443",
                "964",
                "479",
                "415"
            ]
        },
        {
            "tour_id": "6",
            "start_time": 54137872,
            "deliveries": [
                "1932",
                "196",
                "759",
                "636",
                "1678",
                "916",
                "134",
                "1315",
                "941",
                "1223",
                "788",
                "680",
                "1900",
                "78",
                "1825",
                "3",
                "1326",
                "1365",
                "436",
                "519",
                "1104",
                "253",
                "1370",
                "1539",
                "1142",
                "257",
                "1410",
                "556",
                "1245",
                "1198",
                "727",
                "232",
                "923",
                "1925",
                "103",
                "1980",
                "1663",
                "1941",
                "1006",
                "1711",
                "1551",
                "1857",
                "1019",
                "63",
                "670",
                "1228",
                "29",
                "1227",
                "361",
                "401",
                "900",
                "1610",
                "1414",
                "783",
                "649",
                "318",
                "1961",
                "139",
                "581",
                "1567",
                "1983",
                "1479",
                "1191",
                "334",
                "161",
                "1379",
                "214",
                "1435",
                "1271"
            ]
        },
        {
            "tour_id": "7",
            "start_time": 54205919,
            "deliveries": [
                "555",
                "77",
                "1899",
                "451",
                "308",
                "460",
                "765",
                "548",
                "39",
                "1682",
                "1727",
                "1549",
                "1405",
                "1611",
                "549",
                "748",
                "1280",
                "892",
                "1808",
                "1313",
                "813",
                "1959",
                "137",
                "1067",
                "1821",
                "22",
                "1844",
                "701",
                "546",
                "1582",
                "1113",
                "706",
                "1377",
                "1098",
                "640",
                "272",
                "1861",
                "353",
                "820",
                "1053",
                "204",
                "1481",
                "269",
                "1704",
                "692",
                "585",
                "119",
                "663",
                "1256",
                "1878",
                "56",
                "1625",
                "1532",
                "1357",
                "392",
                "861",
                "1324",
                "35",
                "711"
            ]
        },
        {
            "tour_id": "8",
            "start_time": 54279255,
            "deliveries": [
                "478",
                "818",
                "1304",
                "1250",
                "1913",
                "55",
                "91",
                "1877",
                "1540",
                "1322",
                "919",
                "1534",
                "1489",
                "709",
                "432",
                "51",
                "1873",
                "637",
                "1989",
                "167",
                "1003",
                "1161",
                "1314",
                "571",
                "1074",
                "1659",
                "522",
                "1621",
                "180",
                "667",
                "46",
                "1868",
                "1141",
                "1966",
                "144",
                "1521",
                "271",
                "1277",
                "1020",
                "600",
                "1748",
                "1292",
                "1311",
                "1778",
                "817",
                "828",
                "1078",
                "1770",
                "1629",
                "942",
                "1530",
                "513",
                "222",
                "1172",
                "860",
                "586",
                "1806",
                "1387",
                "1905",
                "83",
                "598",
                "1156",
                "1103",
                "662",
                "1860",
                "38",
                "985",
                "1429",
                "1743",
                "72",
                "1894",
                "256",
                "1774",
                "1349",
                "561",
                "958",
                "1248",
                "1775",
                "1438",
                "435",
                "591",
                "168",
                "1802",
                "1990",
                "1635",
                "625",
                "810"
            ]
        },
        {
            "tour_id": "9",
            "start_time": 54559795,
            "deliveries": [
                "386",
                "1915",
                "93",
                "697",
                "417",
                "1498",
                "1561",
                "735",
                "994",
                "1779",
                "1522",
                "1125",
                "1608",
                "1787",
                "665",
                "1126",
                "991",
                "99",
                "1921",
                "824",
                "1144",
                "156",
                "1978",
                "882",
                "1272",
                "1368",
                "407",
                "1885",
                "1660",
                "1814",
                "1167",
                "1100",
                "1526",
                "416",
                "1568",
                "1247",
                "1875",
                "1856",
                "34",
                "321",
                "1082",
                "612",
                "380",
                "766",
                "1457",
                "1792",
                "1812",
                "648",
                "895",
                "894",
                "366",
                "1510",
                "1411",
                "1023",
                "265",
                "1575",
                "248",
                "101",
                "1923",
                "250",
                "1737",
                "741",
                "1428",
                "1363",
                "53",
                "1731",
                "666",
                "470",
                "212",
                "852",
                "1159",
                "261",
                "1797",
                "651",
                "655",
                "289",
                "1185"
            ]
        },
        {
            "tour_id": "10",
            "start_time": 54447343,
            "deliveries": [
                "434",
                "842",
                "327",
                "656",
                "1102",
                "1562",
                "1456",
                "837",
                "1182",
                "1268",
                "1687",
                "1851",
                "653",
                "1436",
                "988",
                "448",
                "461",
                "1176",
                "431",
                "688",
                "1600",
                "418",
                "1826",
                "4",
                "1631",
                "734",
                "889",
                "158",
                "1244",
                "1101",
                "563",
                "1889",
                "67",
                "1409",
                "1129",
                "778",
                "504",
                "506",
                "580",
                "1622",
                "1789",
                "1270",
                "996",
                "823",
                "721",
                "965",
                "1048",
                "330",
                "231",
                "1080",
                "1040",
                "718",
                "462",
                "855",
                "1781",
                "1550",
                "494",
                "1729",
                "645",
                "1254",
                "342",
                "1673",
                "337",
                "1986",
                "164",
                "1189",
                "1637",
                "1086",
                "8",
                "1072",
                "1918",
                "722",
                "185",
                "1586",
                "1215",
                "588",
                "1524",
                "1118",
                "1207",
                "200",
                "1075"
            ]
        },
        {
            "tour_id": "11",
            "start_time": 54925341,
            "deliveries": [
                "1805",
                "295",
                "1427",
                "835",
                "1690",
                "626",
                "1226",
                "1123",
                "926",
                "14",
                "1836",
                "1217",
                "1147",
                "1163",
                "1628",
                "404",
                "1068",
                "1026",
                "695",
                "726",
                "1004",
                "856",
                "1465",
                "714",
                "303",
                "1332",
                "538",
                "422",
                "793",
                "332",
                "786",
                "495",
                "1837",
                "1701",
                "467",
                "972",
                "224",
                "109",
                "1931",
                "1133",
                "268",
                "395",
                "1684",
                "1037",
                "1750",
                "47",
                "1869",
                "1323",
                "589",
                "1367",
                "44",
                "579",
                "1307",
                "1866",
                "1698",
                "389",
                "659",
                "927",
                "1574",
                "1030",
                "1683",
                "552",
                "948",
                "987",
                "629",
                "684",
                "288",
                "1954",
                "132",
                "1266",
                "1170"
            ]
        },
        {
            "tour_id": "12",
            "start_time": 55386256,
            "deliveries": [
                "1977",
                "473",
                "1669",
                "1204",
                "962",
                "23",
                "1478",
                "190",
                "259",
                "1776",
                "676",
                "1343",
                "1644",
                "569",
                "954",
                "76",
                "459",
                "62",
                "1884",
                "1503",
                "864",
                "1175",
                "678",
                "920",
                "1583",
                "234",
                "1755",
                "658",
                "715",
                "763",
                "806",
                "893",
                "135",
                "1957",
                "149",
                "1971",
                "1845",
                "1252",
                "940",
                "358",
                "1096",
                "1234",
                "1898",
                "776",
                "1288",
                "812",
                "1297",
                "584",
                "838",
                "1333",
                "281",
                "155",
                "59",
                "429",
                "396",
                "262",
                "566"
            ]
        },
        {
            "tour_id": "13",
            "start_time": 55387096,
            "deliveries": [
                "1089",
                "1151",
                "1618",
                "1388",
                "1296",
                "1153",
                "1476",
                "333",
                "853",
                "255",
                "355",
                "1952",
                "130",
                "241",
                "551",
                "481",
                "1907",
                "1689",
                "1446",
                "1450",
                "1383",
                "276",
                "1298",
                "774",
                "1538",
                "967",
                "1773",
                "469",
                "534",
                "1740",
                "485",
                "1487",
                "1031",
                "239",
                "1718",
                "242",
                "815",
                "423",
                "1214",
                "752",
                "1186",
                "1766",
                "610",
                "440",
                "1793",
                "1715",
                "1334",
                "187",
                "840",
                "1458",
                "1278",
                "1745",
                "925",
                "1310",
                "252",
                "1523",
                "1174",
                "616",
                "1744",
                "781",
                "929",
                "1455",
                "1276",
                "199",
                "1542",
                "910",
                "152",
                "608",
                "69",
                "1891",
                "1231",
                "11",
                "1833",
                "700"
            ]
        },
        {
            "tour_id": "14",
            "start_time": 55239526,
            "deliveries": [
                "498",
                "1497",
                "685",
                "827",
                "1494",
                "31",
                "1853",
                "587",
                "1870",
                "904",
                "1404",
                "1662",
                "1154",
                "1396",
                "286",
                "1501",
                "1974",
                "1148",
                "1128",
                "468",
                "237",
                "1800",
                "1155",
                "249",
                "673",
                "936",
                "1839",
                "223",
                "560",
                "477",
                "1295",
                "409",
                "836",
                "1378",
                "618",
                "1723",
                "915",
                "221",
                "691",
                "1811",
                "1045",
                "17",
                "1302",
                "328",
                "40",
                "1862",
                "1294",
                "1747",
                "1286",
                "1741",
                "1988",
                "166",
                "1580",
                "15",
                "627",
                "1183",
                "376",
                "1093",
                "909",
                "382",
                "85",
                "1664",
                "1025",
                "807",
                "349",
                "1801",
                "113",
                "1935",
                "737",
                "311",
                "1095",
                "819",
                "599",
                "1197",
                "1722"
            ]
        },
        {
            "tour_id": "15",
            "start_time": 55343477,
            "deliveries": [
                "732",
                "577",
                "1041",
                "1201",
                "951",
                "1661",
                "1299",
                "913",
                "1903",
                "81",
                "1249",
                "1394",
                "1212",
                "767",
                "277",
                "420",
                "1355",
                "1218",
                "873",
                "1881",
                "1146",
                "859",
                "955",
                "650",
                "1546",
                "300",
                "898",
                "1849",
                "1353",
                "1447",
                "1798",
                "1552",
                "1649",
                "885",
                "1242",
                "1336",
                "1354",
                "54",
                "233",
                "1035",
                "792",
                "1653",
                "758",
                "367",
                "1717",
                "1761",
                "614",
                "574",
                "507",
                "973",
                "1979",
                "157",
                "347",
                "235",
                "1222",
                "466",
                "1312",
                "1356",
                "87",
                "903",
                "1330"
            ]
        },
        {
            "tour_id": "16",
            "start_time": 55166893,
            "deliveries": [
                "808",
                "188",
                "450",
                "547",
                "704",
                "1399",
                "18",
                "1073",
                "582",
                "724",
                "1563",
                "594",
                "1477",
                "1259",
                "830",
                "1165",
                "1251",
                "398",
                "1835",
                "657",
                "13",
                "1382",
                "979",
                "896",
                "1736",
                "1613",
                "664",
                "995",
                "1676",
                "1642",
                "874",
                "1091",
                "254",
                "764",
                "1087",
                "642",
                "1548",
                "1391",
                "693",
                "1403",
                "442",
                "1062",
                "568",
                "682",
                "710",
                "609",
                "1769",
                "1473",
                "1566",
                "1413",
                "1216",
                "1491",
                "826",
                "324",
                "1767",
                "1043",
                "1919",
                "136",
                "1958",
                "75",
                "454",
                "713"
            ]
        },
        {
            "tour_id": "17",
            "start_time": 55228604,
            "deliveries": [
                "1953",
                "131",
                "1012",
                "1545",
                "757",
                "1536",
                "236",
                "1190",
                "523",
                "887",
                "184",
                "348",
                "1581",
                "1981",
                "159",
                "1555",
                "1790",
                "862",
                "1362",
                "1674",
                "356",
                "592",
                "111",
                "151",
                "1973",
                "1432",
                "811",
                "938",
                "1934",
                "503",
                "112",
                "1077",
                "391",
                "1893",
                "1419",
                "1855",
                "1809",
                "1679",
                "1912",
                "360",
                "1061",
                "124",
                "1946",
                "1032",
                "1056",
                "1011",
                "570",
                "1746",
                "1710",
                "96",
                "899",
                "1641",
                "1830",
                "601",
                "1864",
                "1472",
                "845",
                "1533",
                "976",
                "850",
                "1685",
                "738",
                "90",
                "30",
                "1264",
                "1309",
                "64",
                "628",
                "1712",
                "690",
                "679",
                "797",
                "1516",
                "857",
                "1733",
                "1782",
                "619",
                "1525",
                "1703",
                "843",
                "1725",
                "800",
                "1241",
                "1395",
                "1817",
                "1502",
                "550"
            ]
        },
        {
            "tour_id": "18",
            "start_time": 54888450,
            "deliveries": [
                "352",
                "293",
                "1910",
                "1136",
                "1719",
                "381",
                "1034",
                "1052",
                "1578",
                "1850",
                "88",
                "1111",
                "428",
                "1558",
                "1127",
                "1440",
                "1528",
                "492",
                "968",
                "1132",
                "1677",
                "1261",
                "754",
                "521",
                "799",
                "339",
                "1109",
                "1764",
                "1331",
                "1686",
                "210",
                "365",
                "707",
                "1289",
                "1044",
                "712",
                "383",
                "1036",
                "615",
                "597",
                "739",
                "1206",
                "1348",
                "317",
                "116",
                "1938",
                "1070",
                "446",
                "696",
                "1897",
                "399",
                "191",
                "97",
                "350",
                "632",
                "622",
                "275",
                "1351",
                "743",
                "977",
                "490",
                "1051",
                "675",
                "165",
                "384",
                "1987",
                "990",
                "402",
                "1303",
                "1393",
                "1615",
                "719",
                "1398",
                "509",
                "1681",
                "1492",
                "989",
                "583",
                "516",
                "307",
                "1735",
                "1421",
                "753",
                "633",
                "1509"
            ]
        },
        {
            "tour_id": "19",
            "start_time": 54643002,
            "deliveries": [
                "319",
                "437",
                "512",
                "833",
                "1433",
                "953",
                "472",
                "839",
                "1543",
                "216",
                "439",
                "195",
                "573",
                "1083",
                "1328",
                "1643",
                "1573",
                "966",
                "660",
                "821",
                "1243",
                "1010",
                "452",
                "206",
                "1145",
                "1547",
                "537",
                "1269",
                "1848",
                "26",
                "869",
                "646",
                "1225",
                "412",
                "1783",
                "1599",
                "427",
                "1691",
                "908",
                "1940",
                "118",
                "326",
                "1306",
                "413",
                "1274",
                "1514",
                "960",
                "278",
                "1373",
                "1982",
                "160",
                "1453",
                "1169",
                "905",
                "28",
                "258",
                "1796",
                "1193",
                "1115",
                "1192",
                "935",
                "1592",
                "699",
                "499",
                "849",
                "1840",
                "405",
                "1483",
                "220"
            ]
        },
        {
            "tour_id": "20",
            "start_time": 54629659,
            "deliveries": [
                "45",
                "613",
                "1867",
                "1803",
                "230",
                "1471",
                "755",
                "939",
                "912",
                "961",
                "1416",
                "1063",
                "1585",
                "1945",
                "1640",
                "1623",
                "733",
                "1344",
                "1027",
                "606",
                "635",
                "1008",
                "424",
                "1157",
                "1422",
                "42",
                "1220",
                "325",
                "1321",
                "1852",
                "61",
                "438",
                "48",
                "1886",
                "71",
                "445",
                "1883",
                "1544",
                "1152",
                "1933",
                "1996",
                "174",
                "543",
                "1834",
                "12",
                "1804",
                "1187",
                "1758",
                "1519",
                "198",
                "36",
                "1858",
                "1150",
                "914",
                "921",
                "408",
                "1287",
                "1757",
                "1097",
                "387",
                "49",
                "176",
                "1470",
                "1554",
                "1517",
                "553",
                "952",
                "1749",
                "474",
                "980",
                "1520",
                "373",
                "596",
                "219",
                "705",
                "283",
                "421",
                "1076"
            ]
        },
        {
            "tour_id": "21",
            "start_time": 55107609,
            "deliveries": [
                "772",
                "1065",
                "1188",
                "202",
                "1117",
                "924",
                "703",
                "841",
                "565",
                "1084",
                "1120",
                "33",
                "1871",
                "1998",
                "871",
                "931",
                "368",
                "878",
                "1380",
                "274",
                "483",
                "1499",
                "1480",
                "287",
                "1347",
                "888",
                "729",
                "1876",
                "1016",
                "1468",
                "545",
                "1909",
                "346",
                "1107",
                "1654",
                "950",
                "1066",
                "1647",
                "314",
                "1920",
                "364",
                "974",
                "267",
                "1149",
                "201",
                "1579",
                "1879",
                "57",
                "228",
                "218",
                "296",
                "1726",
                "540",
                "937",
                "98",
                "1301",
                "1290",
                "108",
                "1930",
                "1401",
                "343",
                "1267",
                "359",
                "1632",
                "525",
                "822",
                "433",
                "524",
                "621",
                "1926",
                "104",
                "1196"
            ]
        },
        {
            "tour_id": "22",
            "start_time": 54227633,
            "deliveries": [
                "1434",
                "911",
                "1752",
                "227",
                "731",
                "181",
                "932",
                "877",
                "515",
                "1795",
                "1882",
                "971",
                "1139",
                "323",
                "934",
                "1512",
                "1707",
                "1529",
                "947",
                "1412",
                "1646",
                "430",
                "1046",
                "1337",
                "1818",
                "1389",
                "1042",
                "1255",
                "263",
                "1590",
                "282",
                "208",
                "1005",
                "611",
                "211",
                "749",
                "217",
                "918",
                "1565",
                "1695",
                "1235",
                "133",
                "1955",
                "1358",
                "27",
                "1178",
                "419",
                "1820",
                "528",
                "309",
                "1624",
                "458",
                "1059",
                "128",
                "1950",
                "1137",
                "121",
                "1943",
                "803",
                "530",
                "1570",
                "1085",
                "1038",
                "1",
                "1823",
                "944"
            ]
        },
        {
            "tour_id": "23",
            "start_time": 54000000,
            "deliveries": [
                "1863",
                "41",
                "1541",
                "192",
                "620",
                "1593",
                "1121",
                "1390",
                "1948",
                "126",
                "447",
                "1211",
                "1467",
                "1426",
                "1448",
                "1171",
                "1619",
                "393",
                "993",
                "526",
                "1345",
                "1372",
                "246",
                "1285",
                "816",
                "698",
                "1131",
                "344",
                "1963",
                "449",
                "32",
                "1556",
                "1904",
                "875",
                "1258",
                "1014",
                "1587",
                "1638",
                "708",
                "1636",
                "1827",
                "496",
                "1425",
                "357",
                "1507",
                "1890",
                "1397",
                "1734",
                "95",
                "532",
                "141",
                "1754",
                "647",
                "1229",
                "1666",
                "1829",
                "1730",
                "814",
                "928",
                "322",
                "746",
                "169",
                "777",
                "1459",
                "1342",
                "243",
                "1667",
                "902",
                "1015",
                "945",
                "1407",
                "488",
                "1124",
                "1116",
                "1143"
            ]
        },
        {
            "tour_id": "24",
            "start_time": 54000000,
            "deliveries": [
                "215",
                "1589",
                "1854",
                "82",
                "1081",
                "1694",
                "247",
                "1917",
                "1984",
                "1209",
                "68",
                "162",
                "1584",
                "463",
                "654",
                "1195",
                "1716",
                "520",
                "1680",
                "1672",
                "7",
                "207",
                "400",
                "1759",
                "517",
                "5",
                "668",
                "1203",
                "1951",
                "1598",
                "1359",
                "441",
                "1772",
                "1057",
                "1469",
                "1001",
                "1495",
                "1633",
                "769",
                "60",
                "183",
                "74",
                "514",
                "16",
                "1838",
                "949",
                "1991",
                "984",
                "50",
                "1872",
                "1350",
                "544",
                "1896",
                "1630",
                "593",
                "1318",
                "229",
                "297",
                "1221",
                "338",
                "564",
                "1742",
                "595",
                "444",
                "1341",
                "1284",
                "1381",
                "872",
                "787",
                "335",
                "639",
                "1559",
                "1366",
                "1406",
                "194",
                "634",
                "1181",
                "1460",
                "510",
                "369",
                "1466",
                "1418",
                "1058",
                "476",
                "390",
                "1671",
                "846",
                "491",
                "66",
                "1177",
                "52",
                "1874",
                "301",
                "123"
            ]
        },
        {
            "tour_id": "25",
            "start_time": 54026203,
            "deliveries": [
                "1029",
                "694",
                "791",
                "1601",
                "1400",
                "105",
                "1927",
                "1327",
                "858",
                "876",
                "527",
                "1283",
                "1486",
                "1112",
                "881",
                "20",
                "1279",
                "511",
                "1786",
                "273",
                "901",
                "756",
                "1572",
                "1392",
                "1092",
                "1094",
                "1914",
                "1785",
                "92",
                "305",
                "371",
                "1054",
                "1888",
                "848",
                "1050",
                "624",
                "129",
                "1335",
                "1784",
                "868",
                "1238",
                "1657",
                "1275",
                "426",
                "1140",
                "1233",
                "999",
                "1329",
                "981",
                "1449",
                "1670",
                "717",
                "1813",
                "179",
                "1210",
                "313",
                "1482",
                "623",
                "1420",
                "1708",
                "578",
                "336",
                "1560",
                "922",
                "1650",
                "1965",
                "143",
                "178",
                "2000",
                "1999",
                "177",
                "562",
                "798",
                "946"
            ]
        },
        {
            "tour_id": "26",
            "start_time": 54006813,
            "deliveries": [
                "802",
                "1385",
                "1606",
                "1088",
                "1656",
                "1461",
                "1199",
                "992",
                "661",
                "1908",
                "86",
                "641",
                "1815",
                "84",
                "1906",
                "280",
                "1134",
                "1760",
                "986",
                "576",
                "716",
                "1763",
                "1158",
                "1484",
                "1892",
                "70",
                "203",
                "1738",
                "1108",
                "1569",
                "182",
                "1591",
                "1816",
                "1713",
                "1402",
                "362",
                "943",
                "607",
                "1847",
                "604",
                "25",
                "740",
                "1122",
                "1384",
                "795",
                "1282",
                "1842",
                "1325",
                "1007",
                "457",
                "1475"
            ]
        },
        {
            "tour_id": "27",
            "start_time": 54178219,
            "deliveries": [
                "1553",
                "1009",
                "292",
                "847",
                "1202",
                "1376",
                "652",
                "372",
                "1652",
                "1700",
                "370",
                "539",
                "65",
                "880",
                "1627",
                "1415",
                "762",
                "465",
                "1794",
                "531",
                "154",
                "1976",
                "260",
                "742",
                "107",
                "1537",
                "102",
                "1531",
                "299",
                "605",
                "100",
                "1340",
                "1018",
                "723",
                "630",
                "575",
                "501",
                "1557",
                "1423",
                "557",
                "302",
                "1317",
                "1799",
                "1179",
                "854",
                "1594",
                "906",
                "225",
                "1071",
                "1493",
                "110",
                "1442",
                "1924",
                "304",
                "379",
                "1922",
                "340",
                "1956",
                "773",
                "175",
                "1997",
                "1490",
                "891",
                "796",
                "907",
                "1887",
                "1273",
                "1339",
                "1028",
                "1841",
                "1620",
                "19",
                "725",
                "2",
                "1824",
                "1668",
                "1375",
                "172",
                "1320",
                "1994",
                "1352",
                "1609",
                "394",
                "471",
                "1765",
                "1612",
                "1588",
                "689",
                "1645",
                "482",
                "1246",
                "290",
                "1696",
                "480",
                "1462"
            ]
        }
    ]
}