{
  "depot": {
    "latitude": 51.45767112760299,
    "longitude": -0.46119679955215903
  },
  "addresses": {
    "1": {
      "latitude": 51.55887478238178,
      "longitude": -0.3604044022989574
    },
    "2": {
      "latitude": 51.51737751009972,
      "longitude": -0.20617266981603558
    },
    "3": {
      "latitude": 51.51772157192953,
      "longitude": -0.15095701381359755
    },
    "4": {
      "latitude": 51.36270779967792,
      "longitude": -0.19283438626613988
    },
    "5": {
      "latitude": 51.32255900798987,
      "longitude": -0.2016875871070174
    },
    "6": {
      "latitude": 51.47167819714567,
      "longitude": -0.13613030580531738
    },
    "7": {
      "latitude": 51.496597616447126,
      "longitude": -0.19346651417292582
    },
    "8": {
      "latitude": 51.43418209604551,
      "longitude": 0.35283678589219303
    },
    "9": {
      "latitude": 51.326705685620794,
      "longitude": -0.6388931538408212
    },
    "10": {
      "latitude": 51.41084300109782,
      "longitude": -0.02499071048934084
    }
  },
  "items": {
    "1": {
      "pickup_address": "1",
      "delivery_address": "2",
      "earliest_pickup": 55800000,
      "latest_pickup": 75600000,
      "earliest_delivery": 55800000,
      "latest_delivery": 75600000
    },
    "2": {
      "pickup_address": "1",
      "delivery_address": "6",
      "earliest_pickup": 55800000,
      "latest_pickup": 75600000,
      "earliest_delivery": 68400000,
      "latest_delivery": 72000000
    },
    "3": {
      "pickup_address": "1",
      "delivery_address": "7",
      "earliest_pickup": 55800000,
      "latest_pickup": 75600000,
      "earliest_delivery": 55800000,
      "latest_delivery": 75600000
    },
    "4": {
      "pickup_address": "3",
      "delivery_address": "10",
      "earliest_pickup": 55800000,
      "latest_pickup": 75600000,
      "earliest_delivery": 64800000,
      "latest_delivery": 68400000
    },
    "5": {
      "pickup_address": "3",
      "delivery_address": "2",
      "earliest_pickup": 55800000,
      "latest_pickup": 75600000,
      "earliest_delivery": 55800000,
      "latest_delivery": 75600000
    },
    "6": {
      "pickup_address": "3",
      "delivery_address": "4",
      "earliest_pickup": 55800000,
      "latest_pickup": 75600000,
      "earliest_delivery": 59400000,
      "latest_delivery": 63000000
    },
    "7": {
      "pickup_address": "3",
      "delivery_address": "5",
      "earliest_pickup": 55800000,
      "latest_pickup": 75600000,
      "earliest_delivery": 55800000,
      "latest_delivery": 75600000
    },
    "8": {
      "pickup_address": "3",
      "delivery_address": "6",
      "earliest_pickup": 55800000,
      "latest_pickup": 75600000,
      "earliest_delivery": 68400000,
      "latest_delivery": 72000000
    },
    "9": {
      "pickup_address": "3",
      "delivery_address": "7",
      "earliest_pickup": 55800000,
      "latest_pickup": 75600000,
      "earliest_delivery": 55800000,
      "latest_delivery": 75600000
    },
    "10": {
      "pickup_address": "3",
      "delivery_address": "8",
      "earliest_pickup": 55800000,
      "latest_pickup": 75600000,
      "earliest_delivery": 63000000,
      "latest_delivery": 66600000
    }
  }
}
