{
    "depot": {
        "latitude": 37.62347299968334,
        "longitude": -122.39759039002242
    },
    "items": {
        "1": {
            "earliest_delivery": 68400000,
            "latest_delivery": 72000000,
            "latitude": 37.28934126955325,
            "longitude": -121.99498793845832
        },
        "2": {
            "earliest_delivery": 55800000,
            "latest_delivery": 75600000,
            "latitude": 37.810400103716006,
            "longitude": -122.24507533382071
        },
        "3": {
            "earliest_delivery": 55800000,
            "latest_delivery": 59400000,
            "latitude": 37.93480859225382,
            "longitude": -122.05851720478424
        },
        "4": {
            "earliest_delivery": 57600000,
            "latest_delivery": 61200000,
            "latitude": 37.24270506971501,
            "longitude": -121.95913817771962
        },
        "5": {
            "earliest_delivery": 72000000,
            "latest_delivery": 75600000,
            "latitude": 37.797089111005775,
            "longitude": -122.41021098740548
        },
        "6": {
            "earliest_delivery": 57600000,
            "latest_delivery": 61200000,
            "latitude": 37.30251130887116,
            "longitude": -121.86527220759206
        },
        "7": {
            "earliest_delivery": 55800000,
            "latest_delivery": 75600000,
            "latitude": 37.2815889123196,
            "longitude": -121.93167043879698
        },
        "8": {
            "earliest_delivery": 59400000,
            "latest_delivery": 63000000,
            "latitude": 37.783498416332016,
            "longitude": -122.40551201929641
        },
        "9": {
            "earliest_delivery": 70200000,
            "latest_delivery": 73800000,
            "latitude": 37.30738289669609,
            "longitude": -121.9006245415048
        },
        "10": {
            "earliest_delivery": 59400000,
            "latest_delivery": 63000000,
            "latitude": 37.306313180439936,
            "longitude": -121.97755213594365
        }
    }
}